Analysis.Ciona_TMTproC_normalization
…
miss_case_summary(ciona_TMTproC_prenormal.df)

# A tibble: 7,095 × 3
    case n_miss pct_miss
   <int>  <int>    <dbl>
 1     1      0        0
 2     2      0        0
 3     3      0        0
 4     4      0        0
 5     5      0        0
 6     6      0        0
 7     7      0        0
 8     8      0        0
 9     9      0        0
10    10      0        0
# ℹ 7,085 more rows
…
miss_case_summary(human_mitocarta_HGNC.df)

# A tibble: 1,133 × 3
    case n_miss pct_miss
   <int>  <int>    <dbl>
 1     1      0        0
 2     2      0        0
 3     3      0        0
 4     4      0        0
 5     5      0        0
 6     6      0        0
 7     7      0        0
 8     8      0        0
 9     9      0        0
10    10      0        0
# ℹ 1,123 more rows
…
