Analysis.Ciona_TMTproC_part1
…
  group_by(number_of_peptides) %>%
  summarise(n = n()) %>%
  mutate(count = number_of_peptides) %>%
  group_by(count = case_when(count >= 50 ~ ">=50", TRUE ~ as.character(count))) %>% # sum protein count if peptides higher than 50
  mutate(value = sum(n)) %>% # mutate(value = sum(n), .groups = 'drop') %>%
  ungroup() %>%
  filter(number_of_peptides <= 50) %>%
  mutate(
    freq = prop.table(n),
    freq = value / sum(value), # same way
    rel.freq = paste0(round(100 * n / sum(n), 1), "%")
  )
peptides_freqTable

# A tibble: 50 × 6
   number_of_peptides     n count value   freq rel.freq
                <dbl> <int> <chr> <int>  <dbl> <chr>   
 1                  1  1122 1      1122 0.158  16%     
 2                  2   909 2       909 0.128  13%     
 3                  3   627 3       627 0.0884 8.9%    
 4                  4   575 4       575 0.0810 8.2%    
 5                  5   494 5       494 0.0696 7.1%    
 6                  6   414 6       414 0.0584 5.9%    
 7                  7   372 7       372 0.0524 5.3%    
 8                  8   303 8       303 0.0427 4.3%    
 9                  9   247 9       247 0.0348 3.5%    
10                 10   249 10      249 0.0351 3.6%    
# ℹ 40 more rows
…
# protein_isoform_only <-  left_join(protein_isoform_only,annotation.df, by = c("Protein.Id.gene" = "KY.gene.model"),keep =T) # not needed
protein_isoform_only <- ciona_prot.df %>%
  get_dupes(protein_id_gene) %>%
  arrange(desc(dupe_count))
# unite("protein_id_gene", protein_id_gene, gene.name.KY, extra.info, sep= "-") %>%
# mutate(protein_id_gene = gsub("-NA",replacement = "", protein_id_gene), protein_id_gene = gsub("KY21.",replacement = "", protein_id_gene))

## Summary with number of isoforms per protein
protein_isoform_only %>%
  group_by(protein_id_gene) %>%
  summarise(dupe_count = length(protein_id_gene)) %>%
  arrange(desc(dupe_count)) # |>

# A tibble: 35 × 2
   protein_id_gene dupe_count
   <chr>                <int>
 1 KY21.Chr10.215           4
 2 KY21.Chr5.818            3
 3 KY21.Chr1.1682           2
 4 KY21.Chr1.2263           2
 5 KY21.Chr1.326            2
 6 KY21.Chr1.670            2
 7 KY21.Chr10.1001          2
 8 KY21.Chr11.1071          2
 9 KY21.Chr11.568           2
10 KY21.Chr11.747           2
# ℹ 25 more rows
…
