04.Ciona_prot_LF.MS
…
LF_fdr_2perc.df <-  as_tibble(
  read_excel("/Users/mariossi/Library/CloudStorage/Dropbox-Princeton/Papers/Proteomics_ciona/b.raw_data/proteome/LF_fdr.xlsx",
             sheet = "2%_fdr",
             trim_ws = T)
)

# LF_fdr_1perc.df |> filter(!grepl("^#", reference)) #6,077 

LF_fdr_2perc.df |> filter(!grepl("^#", reference)) #6,219

# A tibble: 6,219 × 9
   Unique Total reference                     AVG `Gene Symbol` `MWT(kDa)` Length Coverage `Coverage %`
    <dbl> <dbl> <chr>                       <dbl> <chr>              <dbl>  <dbl>    <dbl>        <dbl>
 1    386  9289 KY21.Chr1.2009.v1.ND1-1      3.22 <NA>                475.   4238     2383        0.562
 2    229  1000 KY21.Chr8.1053.v1.ND1-1      3.11 <NA>                622.   5602     2129        0.38 
 3    193   430 KY21.Chr3.173.v1.ND1-1       2.91 <NA>                529.   4602     1760        0.382
 4    115   252 KY21.Chr3.762.v1.SL2-1       3.14 <NA>                279.   2591     1213        0.468
 5    101   332 KY21.Chr11.334.v1.SL1-1      3.36 <NA>                229.   1976      892        0.451
 6     98   202 KY21.Chr12.733.v1.nonSL1-1   3.08 <NA>                663.   6206     1192        0.192
 7     95   228 KY21.Chr14.883.v1.nonSL3-1   2.76 <NA>                247.   2228      885        0.397
 8     94   180 KY21.Chr9.653.v2.nonSL6-1    2.92 <NA>                406.   3619     1183        0.327
 9     94   172 KY21.Chr10.1084.v1.nonSL2-2  3.07 <NA>                283.   2470     1048        0.424
10     92   169 KY21.Chr4.322.v1.SL2-1       2.84 <NA>                485.   4394     1058        0.241
# ℹ 6,209 more rows
…
